[
   {
      "name": "Abandoned",
      "description": "This device is not maintained, nobody is actively developing it and it will not receive fixes for known issues.</br>If you are a developer we encourage you to contact the porter to continue development.",
      "requirements": []
   },
   {
      "name": "In development",
      "description": "The device is still in early development, essential hardware may not work yet.",
      "requirements": [
         "maintainership"
      ]
   },
   {
      "name": "Community maintained",
      "description": "Developers from the community built this port and reported full functionality.</br>The device is actively receiving updates and is available in the installer.",
      "requirements": [
         "maintainership",
         "essentialFunctions",
         "installer"
      ]
   },
   {
      "name": "Supported by device maker",
      "description": "UBports builds this port in collaboration with the phone maker.</br>Expect long-lasting support since we have an official agreement with the partner.",
      "requirements": [
         "maintainership",
         "essentialFunctions",
         "installer",
         "phoneMakerSupport"
      ]
   }
]
